intermediateR.Rmd
…
Review: tidy data and data transformation with dplyr

Tidy data

When working wtih a dataset, the shape of the data can be described by long form or wide form. In general, the preferred data format is long form data (also called tidy data), where each variable is in its own column, and each observation, or case, is in its own row. When data are organized this way, it is easy to access variables as vectors, or filter by categories.

We can use the gather() function to change wide form data to long form data, and spread() to change long form data to wide form data.

We currently have loaded a tibble called uscity that contains the population of for US cities in 2000 and 2010. By printing the data to screen, we can see that it is currently in long form, with each observation (city by year) having its own row, with the varaible (poplation), in a single column.

uscity

## # A tibble: 522 x 4
##           city state  Year     pop
##          <chr> <chr> <dbl>   <dbl>
##  1     Abilene    TX  2000  115930
##  2     Abilene    TX  2010  117063
##  3       Akron    OH  2000  787289
##  4       Akron    OH  2010  199110
##  5 Albuquerque    NM  2000 1046798
##  6 Albuquerque    NM  2010  545852
##  7  Alexandria    VA  2000  128283
##  8  Alexandria    VA  2010  139966
##  9   Allentown    PA  2000  683040
## 10   Allentown    PA  2010  118032
## # ... with 512 more rows

We can use spread() to convert this to wide form data, to display the population per year in two separate columns.

uscity_wide <- uscity %>%
  spread(key=Year, value=pop)
uscity_wide

## # A tibble: 285 x 4
##           city state  `2000` `2010`
##  *       <chr> <chr>   <dbl>  <dbl>
##  1     Abilene    TX  115930 117063
##  2       Akron    OH  787289 199110
##  3 Albuquerque    NM 1046798 545852
##  4  Alexandria    VA  128283 139966
##  5   Allentown    PA  683040 118032
##  6    Amarillo    TX  352939 190695
##  7     Anaheim    CA  328014 336265
##  8   Anchorage    AK  260283 291826
##  9   Ann Arbor    MI  397928 113934
## 10     Antioch    CA      NA 102372
## # ... with 275 more rows

We can use gather() to return this to long form.

uscity_long <- uscity_wide %>%
  gather(key=Year,value=pop,-city,-state)
uscity_long

## # A tibble: 570 x 4
##           city state  Year     pop
##          <chr> <chr> <chr>   <dbl>
##  1     Abilene    TX  2000  115930
##  2       Akron    OH  2000  787289
##  3 Albuquerque    NM  2000 1046798
##  4  Alexandria    VA  2000  128283
##  5   Allentown    PA  2000  683040
##  6    Amarillo    TX  2000  352939
##  7     Anaheim    CA  2000  328014
##  8   Anchorage    AK  2000  260283
##  9   Ann Arbor    MI  2000  397928
## 10     Antioch    CA  2000      NA
## # ... with 560 more rows

Recall that two other useful functions in the tidy package are unite(), which can be used to combine two columns into one, and separate(), which can be used to split one column into two.

To demonstrate, lets first combine the city and state columns into one, separated by ,.

uscity_long <- uscity_long %>%
  unite(city, state, col="location", sep=", ", remove=TRUE)
uscity_long

## # A tibble: 570 x 3
##           location  Year     pop
##  *           <chr> <chr>   <dbl>
##  1     Abilene, TX  2000  115930
##  2       Akron, OH  2000  787289
##  3 Albuquerque, NM  2000 1046798
##  4  Alexandria, VA  2000  128283
##  5   Allentown, PA  2000  683040
##  6    Amarillo, TX  2000  352939
##  7     Anaheim, CA  2000  328014
##  8   Anchorage, AK  2000  260283
##  9   Ann Arbor, MI  2000  397928
## 10     Antioch, CA  2000      NA
## # ... with 560 more rows

Now lets separate that location column back into city and state with separate().

uscity_long <- uscity_long %>%
  separate(location, into=c("city","state"), sep=", ", remove=TRUE)
uscity_long

## # A tibble: 570 x 4
##           city state  Year     pop
##  *       <chr> <chr> <chr>   <dbl>
##  1     Abilene    TX  2000  115930
##  2       Akron    OH  2000  787289
##  3 Albuquerque    NM  2000 1046798
##  4  Alexandria    VA  2000  128283
##  5   Allentown    PA  2000  683040
##  6    Amarillo    TX  2000  352939
##  7     Anaheim    CA  2000  328014
##  8   Anchorage    AK  2000  260283
##  9   Ann Arbor    MI  2000  397928
## 10     Antioch    CA  2000      NA
## # ... with 560 more rows

Data Transformation

In Introduction to R, we also learned several functions to transform data matrices (tibbles) with dplyr. Here we will briefly review them.

The arrange() function can be used to reorder data. Lets rearrange our uscity_long tibble so that the order matches the original uscity tibble.

uscity_long %>%
  arrange(city)

## # A tibble: 570 x 4
##           city state  Year     pop
##          <chr> <chr> <chr>   <dbl>
##  1     Abilene    TX  2000  115930
##  2     Abilene    TX  2010  117063
##  3       Akron    OH  2000  787289
##  4       Akron    OH  2010  199110
##  5 Albuquerque    NM  2000 1046798
##  6 Albuquerque    NM  2010  545852
##  7  Alexandria    VA  2000  128283
##  8  Alexandria    VA  2010  139966
##  9   Allentown    PA  2000  683040
## 10   Allentown    PA  2010  118032
## # ... with 560 more rows

By adding the desc() function to the arrange call, we can reverse the order.

uscity_long %>%
  arrange(desc(city))

## # A tibble: 570 x 4
##             city state  Year    pop
##            <chr> <chr> <chr>  <dbl>
##  1       Yonkers    NY  2000 196086
##  2       Yonkers    NY  2010 195976
##  3     Worcester    MA  2000 602530
##  4     Worcester    MA  2010 181045
##  5 Winston-salem    NC  2000 485066
##  6 Winston-salem    NC  2010 229617
##  7    Wilmington    NC  2000     NA
##  8    Wilmington    NC  2010 106476
##  9 Wichita Falls    TX  2000 104197
## 10 Wichita Falls    TX  2010 104553
## # ... with 560 more rows

The select() function can be used to select columns of the tibble, and can also be used to rename columns (remember the rename() fuction can also do this specifically). Keep in mind that you can select all columns, but in a different order, if you simply want to rearrange your columns.

For example, lets rearrange the uscity_long columns, and rename pop to population and Year to year.

uscity_long %>%
  select(year = Year, state, city, population = pop)

## # A tibble: 570 x 4
##     year state        city population
##  * <chr> <chr>       <chr>      <dbl>
##  1  2000    TX     Abilene     115930
##  2  2000    OH       Akron     787289
##  3  2000    NM Albuquerque    1046798
##  4  2000    VA  Alexandria     128283
##  5  2000    PA   Allentown     683040
##  6  2000    TX    Amarillo     352939
##  7  2000    CA     Anaheim     328014
##  8  2000    AK   Anchorage     260283
##  9  2000    MI   Ann Arbor     397928
## 10  2000    CA     Antioch         NA
## # ... with 560 more rows
…
## # A tibble: 2 x 1
##    Year
##   <chr>
## 1  2000
## 2  2010

Finally, the mutate() function can be used to create or update a column. Lets round the pop colum to the nearest thousand.

uscity_long %>%
  mutate(pop = round(pop,digits = -3))

## # A tibble: 570 x 4
##           city state  Year     pop
##          <chr> <chr> <chr>   <dbl>
##  1     Abilene    TX  2000  116000
##  2       Akron    OH  2000  787000
##  3 Albuquerque    NM  2000 1047000
##  4  Alexandria    VA  2000  128000
##  5   Allentown    PA  2000  683000
##  6    Amarillo    TX  2000  353000
##  7     Anaheim    CA  2000  328000
##  8   Anchorage    AK  2000  260000
##  9   Ann Arbor    MI  2000  398000
## 10     Antioch    CA  2000      NA
## # ... with 560 more rows
…
Filtering functions

Sometiems we need to filter datasets, and we can do this by selecting rows that meet logical conditions. We set these up with logical tests.

The filter() function can be used to select rows meeting these conditions:

housing_clean %>%
  filter(city == "Boston")

## # A tibble: 348 x 7
##     year month   city state local_index national_index rel_index
##    <int> <chr>  <chr> <chr>       <dbl>          <dbl>     <dbl>
##  1  1987   Jan Boston    MA       70.04          63.75  1.098667
##  2  1987   Feb Boston    MA       70.08          64.15  1.092440
##  3  1987   Mar Boston    MA       70.00          64.49  1.085440
##  4  1987   Apr Boston    MA       70.70          64.99  1.087860
##  5  1987   May Boston    MA       71.51          65.57  1.090590
##  6  1987   Jun Boston    MA       72.32          66.24  1.091787
##  7  1987   Jul Boston    MA       73.09          66.80  1.094162
##  8  1987   Aug Boston    MA       73.79          67.29  1.096597
##  9  1987   Sep Boston    MA       74.39          67.64  1.099793
## 10  1987   Oct Boston    MA       74.63          67.92  1.098793
## # ... with 338 more rows

We can give filter many logical tests, all separated by commas. These are linked by logical and (all must be true to select that row):

housing_clean %>%
  filter(city=="Boston", month=="Aug")

## # A tibble: 29 x 7
##     year month   city state local_index national_index rel_index
##    <int> <chr>  <chr> <chr>       <dbl>          <dbl>     <dbl>
##  1  1987   Aug Boston    MA       73.79          67.29 1.0965968
##  2  1988   Aug Boston    MA       75.47          72.19 1.0454357
##  3  1989   Aug Boston    MA       74.07          76.28 0.9710278
##  4  1990   Aug Boston    MA       69.56          77.47 0.8978960
##  5  1991   Aug Boston    MA       64.79          76.59 0.8459329
##  6  1992   Aug Boston    MA       64.75          76.74 0.8437581
##  7  1993   Aug Boston    MA       66.62          78.14 0.8525723
##  8  1994   Aug Boston    MA       69.27          80.33 0.8623179
##  9  1995   Aug Boston    MA       71.04          81.68 0.8697356
## 10  1996   Aug Boston    MA       73.98          83.68 0.8840822
## # ... with 19 more rows

If we want to use other booleans, just put them in one statement, e.g.:

housing_clean %>%
  filter(city=="Boston", month == "Aug" | month == "Jan")

## # A tibble: 58 x 7
##     year month   city state local_index national_index rel_index
##    <int> <chr>  <chr> <chr>       <dbl>          <dbl>     <dbl>
##  1  1987   Jan Boston    MA       70.04          63.75 1.0986667
##  2  1987   Aug Boston    MA       73.79          67.29 1.0965968
##  3  1988   Jan Boston    MA       74.40          68.60 1.0845481
##  4  1988   Aug Boston    MA       75.47          72.19 1.0454357
##  5  1989   Jan Boston    MA       74.23          73.62 1.0082858
##  6  1989   Aug Boston    MA       74.07          76.28 0.9710278
##  7  1990   Jan Boston    MA       72.76          76.53 0.9507383
##  8  1990   Aug Boston    MA       69.56          77.47 0.8978960
##  9  1991   Jan Boston    MA       64.97          75.53 0.8601880
## 10  1991   Aug Boston    MA       64.79          76.59 0.8459329
## # ... with 48 more rows
…
## # A tibble: 3 x 2
##    year rel_index
##   <int>     <dbl>
## 1  2003  1.149941
## 2  2004  1.126715
## 3  2002  1.115854

Finally, many times you want to filter out missing data (typically indicated by NA in R), prior to conducting any analyses. To do this, we an use the is.na() fuction, which will return a vector with TRUE if NA is present, and FALSE otherwise. For example, lets identify all rows that are missing the local_index in housing_clean.

housing_clean %>%
  filter(is.na(local_index))

## # A tibble: 336 x 7
##     year month        city state local_index national_index rel_index
##    <int> <chr>       <chr> <chr>       <dbl>          <dbl>     <dbl>
##  1  1987   Jan     Phoenix    AZ          NA          63.75        NA
##  2  1987   Jan     Atlanta    GA          NA          63.75        NA
##  3  1987   Jan     Detroit    MI          NA          63.75        NA
##  4  1987   Jan Minneapolis    MN          NA          63.75        NA
##  5  1987   Jan      Dallas    TX          NA          63.75        NA
##  6  1987   Jan     Seattle    WA          NA          63.75        NA
##  7  1987   Feb     Phoenix    AZ          NA          64.15        NA
##  8  1987   Feb     Atlanta    GA          NA          64.15        NA
##  9  1987   Feb     Detroit    MI          NA          64.15        NA
## 10  1987   Feb Minneapolis    MN          NA          64.15        NA
## # ... with 326 more rows

To get the inverse for this (or any logical statement), simply add a ! to the front.

housing_clean %>%
  filter(!is.na(local_index))

## # A tibble: 6,624 x 7
##     year month          city state local_index national_index rel_index
##    <int> <chr>         <chr> <chr>       <dbl>          <dbl>     <dbl>
##  1  1987   Jan   Los_Angeles    CA       59.33          63.75 0.9306667
##  2  1987   Jan     San_Diego    CA       54.67          63.75 0.8575686
##  3  1987   Jan San_Francisco    CA       46.61          63.75 0.7311373
##  4  1987   Jan        Denver    CO       50.20          63.75 0.7874510
##  5  1987   Jan    Washington    DC       64.11          63.75 1.0056471
##  6  1987   Jan         Miami    FL       68.50          63.75 1.0745098
##  7  1987   Jan         Tampa    FL       77.33          63.75 1.2130196
##  8  1987   Jan       Chicago    IL       53.55          63.75 0.8400000
##  9  1987   Jan        Boston    MA       70.04          63.75 1.0986667
## 10  1987   Jan     Charlotte    NC       63.39          63.75 0.9943529
## # ... with 6,614 more rows
…
mms %>% summarize(total_mms=sum(count))

## # A tibble: 1 x 1
##   total_mms
##       <int>
## 1      1713

The group_by function allows us to assign groups, which will then be unwound by summarize statements. Easiest to see by example:

mms %>%
  group_by(BagID) %>%
  summarize(mms_per_bag=sum(count)) %>% print %>% summarize(total_mms=sum(mms_per_bag))

## # A tibble: 30 x 2
##    BagID mms_per_bag
##    <int>       <int>
##  1     1          58
##  2     2          59
##  3     3          59
##  4     4          57
##  5     5          55
##  6     6          58
##  7     7          58
##  8     8          61
##  9     9          58
## 10    10          53
## # ... with 20 more rows
…
Note that summarize outputs a new tibble. You can continue to do calculations on this tibble (for example, if you data has many layers), but you cannot call your original tibble again within the same set of pipes.

We can do some tricky stuff with summarize, group_by, and mutate. For example, lets get the fraction of each color in each bag:

mms %>%
  group_by(BagID) %>%
  mutate(percent = 100*(count/sum(count))) %>%
  select(-count) %>%
  spread(color, percent)

## # A tibble: 30 x 8
## # Groups:   BagID [30]
##    Weight BagID      Blue     Brown     Green    Orange       Red   Yellow
##  *  <dbl> <int>     <dbl>     <dbl>     <dbl>     <dbl>     <dbl>    <dbl>
##  1  46.22    10  5.660377 28.301887 16.981132 16.981132 16.981132 15.09434
##  2  46.72    26 12.500000 33.928571 10.714286 10.714286  7.142857 25.00000
##  3  46.94    13 23.636364 23.636364 16.363636  3.636364 21.818182 10.90909
##  4  47.61     5 12.727273  7.272727  5.454545 16.363636 18.181818 40.00000
##  5  47.67    27 19.298246 12.280702 21.052632 10.526316 17.543860 19.29825
##  6  47.70    28  3.703704 29.629630  7.407407 16.666667  9.259259 33.33333
##  7  47.98    14 14.000000 14.000000 14.000000  4.000000 18.000000 36.00000
##  8  48.28    24  1.785714 33.928571 10.714286 21.428571 21.428571 10.71429
##  9  48.33    16 16.363636 36.363636 10.909091  7.272727  7.272727 21.81818
## 10  48.45     9 17.241379 31.034483  3.448276 10.344828  6.896552 31.03448
## # ... with 20 more rows
…
Merging data

As a final data processing step, well look at the merge functions in dplyr. These work kind of like sql queries, and take there names from the similar query syntax. All follow the pattern something_join. The most common are inner_join, left_join, right_join, and full_join, which keep rows with data in both dataframes, the left dataframe, the right dataframe, or either dataframe, respectively. Well look at a couple of examples, and then try a few exercises. Here, well go back to the flights tibble, and use a dataset of US airport codes to add some additional information.

First, lets just do a join to add the info from US airport codes to the flights dataset, merging on the destination airport.

flights2<-left_join(flights, us_aircodes, by=c("dest" = "iata_code")) %>% print

## # A tibble: 336,776 x 30
##     year month   day dep_time sched_dep_time dep_delay arr_time
##    <int> <int> <int>    <int>          <int>     <dbl>    <int>
##  1  2013     1     1      517            515         2      830
##  2  2013     1     1      533            529         4      850
##  3  2013     1     1      542            540         2      923
##  4  2013     1     1      544            545        -1     1004
##  5  2013     1     1      554            600        -6      812
##  6  2013     1     1      554            558        -4      740
##  7  2013     1     1      555            600        -5      913
##  8  2013     1     1      557            600        -3      709
##  9  2013     1     1      557            600        -3      838
## 10  2013     1     1      558            600        -2      753
## # ... with 336,766 more rows, and 23 more variables: sched_arr_time <int>,
## #   arr_delay <dbl>, carrier <chr>, flight <int>, tailnum <chr>,
## #   origin <chr>, dest <chr>, air_time <dbl>, distance <dbl>, hour <dbl>,
## #   minute <dbl>, time_hour <dttm>, ident <chr>, type <chr>, name <chr>,
## #   coordinates <chr>, elevation_ft <int>, continent <chr>,
## #   iso_country <chr>, iso_region <chr>, municipality <chr>,
## #   gps_code <chr>, local_code <chr>

Doing a left join means well keep all the rows of flights, even if they dont have a match in us_aircodes, but in theory everything should have a match.

If we wanted to keep everything in us_aircodes, even if you cant get a direct flight from NYC there, we could use a full join, like so:

flights3 <- flights %>%
  select(origin, dest, carrier, month, day) %>% 
  full_join(., us_aircodes, by=c("dest" = "iata_code")) %>%
  select(municipality, state=iso_region, airport=name, origin:type) %>%
  print

## # A tibble: 338,713 x 10
##       municipality  state                                          airport
##              <chr>  <chr>                                            <chr>
##  1         Houston  US-TX     George Bush Intercontinental Houston Airport
##  2         Houston  US-TX     George Bush Intercontinental Houston Airport
##  3           Miami  US-FL                      Miami International Airport
##  4       Aguadilla PR-U-A                         Rafael Hernandez Airport
##  5         Atlanta  US-GA Hartsfield Jackson Atlanta International Airport
##  6         Chicago  US-IL             Chicago O'Hare International Airport
##  7 Fort Lauderdale  US-FL  Fort Lauderdale Hollywood International Airport
##  8      Washington  US-DC          Washington Dulles International Airport
##  9         Orlando  US-FL                    Orlando International Airport
## 10         Chicago  US-IL             Chicago O'Hare International Airport
## # ... with 338,703 more rows, and 7 more variables: origin <chr>,
## #   dest <chr>, carrier <chr>, month <int>, day <int>, ident <chr>,
## #   type <chr>
…
